(module Hermophroditic (layer F.Cu) (tedit 5889FF04)
  (fp_text reference REF** (at -2.75 -6.5) (layer F.SilkS)
    (effects (font (size 1 1) (thickness 0.15)))
  )
  (fp_text value Hermophroditic (at 0 -4.5) (layer F.Fab)
    (effects (font (size 1 1) (thickness 0.15)))
  )
  (fp_line (start -5.55 -2.07) (end -5.55 2.07) (layer F.SilkS) (width 0.15))
  (fp_line (start -5.55 2.07) (end 5.55 2.07) (layer F.SilkS) (width 0.15))
  (fp_line (start 5.55 -2.07) (end 5.55 2.07) (layer F.SilkS) (width 0.15))
  (fp_line (start -5.55 -2.07) (end 5.55 -2.07) (layer F.SilkS) (width 0.15))
  (pad 20 smd rect (at -2.8575 -1.8) (size 0.4 1.6) (layers F.Cu F.Paste F.Mask))
  (pad 18 smd rect (at -2.2225 -1.8) (size 0.4 1.6) (layers F.Cu F.Paste F.Mask))
  (pad 16 smd rect (at -1.5875 -1.8) (size 0.4 1.6) (layers F.Cu F.Paste F.Mask))
  (pad 14 smd rect (at -0.9525 -1.8) (size 0.4 1.6) (layers F.Cu F.Paste F.Mask))
  (pad 12 smd rect (at -0.3175 -1.8) (size 0.4 1.6) (layers F.Cu F.Paste F.Mask))
  (pad 10 smd rect (at 0.3175 -1.8) (size 0.4 1.6) (layers F.Cu F.Paste F.Mask))
  (pad 8 smd rect (at 0.9525 -1.8) (size 0.4 1.6) (layers F.Cu F.Paste F.Mask))
  (pad 6 smd rect (at 1.5875 -1.8) (size 0.4 1.6) (layers F.Cu F.Paste F.Mask))
  (pad 4 smd rect (at 2.2225 -1.8) (size 0.4 1.6) (layers F.Cu F.Paste F.Mask))
  (pad 2 smd rect (at 2.8575 -1.8) (size 0.4 1.6) (layers F.Cu F.Paste F.Mask))
  (pad 19 smd rect (at -2.8575 1.8) (size 0.4 1.6) (layers F.Cu F.Paste F.Mask))
  (pad 17 smd rect (at -2.2225 1.8) (size 0.4 1.6) (layers F.Cu F.Paste F.Mask))
  (pad 15 smd rect (at -1.5875 1.8) (size 0.4 1.6) (layers F.Cu F.Paste F.Mask))
  (pad 13 smd rect (at -0.9525 1.8) (size 0.4 1.6) (layers F.Cu F.Paste F.Mask))
  (pad 11 smd rect (at -0.3175 1.8) (size 0.4 1.6) (layers F.Cu F.Paste F.Mask))
  (pad 9 smd rect (at 0.3175 1.8) (size 0.4 1.6) (layers F.Cu F.Paste F.Mask))
  (pad 7 smd rect (at 0.9525 1.8) (size 0.4 1.6) (layers F.Cu F.Paste F.Mask))
  (pad 5 smd rect (at 1.5875 1.8) (size 0.4 1.6) (layers F.Cu F.Paste F.Mask))
  (pad 3 smd rect (at 2.2225 1.8) (size 0.4 1.6) (layers F.Cu F.Paste F.Mask))
  (pad 1 smd rect (at 2.8575 1.8) (size 0.4 1.6) (layers F.Cu F.Paste F.Mask))
  (pad 21 smd circle (at -3.925 -1.1) (size 1.2 1.2) (layers F.Cu F.Paste F.Mask))
  (pad 22 smd circle (at 3.925 -1.1) (size 1.2 1.2) (layers F.Cu F.Paste F.Mask))
)
